Segmentação de clientes de um supermercado
…
7.3 Departamentos que vendem mais itens

Apesar do dataset não ter o valor dos produtos, saber quais
departamentos vendem mais pode ser um indicativo de onde vem a maior
parte do lucro do supermercado.

#Tabela que agrupa por departamento e conta os itens que cada cliente compra
df_grupo <- dados2 %>%
  group_by(user_id, department) %>%
  summarise(count = n())
df_grupo

## # A tibble: 599,586 × 3
## # Groups:   user_id [98,918]
##    user_id department count
##      <int> <chr>      <int>
##  1       2 dairy eggs     2
##  2       2 deli           3
##  3       2 produce        3
##  4       2 snacks         3
##  5       3 beverages      1
##  6       3 dairy eggs     5
##  7       3 frozen         2
##  8       3 household      1
##  9       3 pantry         1
## 10       3 produce        6
## # ℹ 599,576 more rows

#Tabela que soma os itens vendidos de cada departamento
df_sum <- df_grupo %>%
  group_by(department) %>%
  summarise(sum_count = sum(count))
df_sum

## # A tibble: 21 × 2
##    department      sum_count
##    <chr>               <int>
##  1 alcohol              8663
##  2 babies              24633
##  3 bakery              68430
##  4 beverages          158100
##  5 breakfast           41733
##  6 bulk                 2036
##  7 canned goods        61844
##  8 dairy eggs         316966
##  9 deli                60934
## 10 dry goods pasta     50475
## # ℹ 11 more rows
…
